ITE machine learning with Tidymodels
…
Preprocessing / feature engineering

Taking a look at our preprocessed training data Since there usually is less Fail in a program, will use upsampling to increase this number so that we can assess our training model better As you can see now we have 5 fails and 5 pass

Preparing our cross validation (model validation dataset) (k=5, repeats =5)

## #  5-fold cross-validation repeated 5 times using stratification 
## # A tibble: 25 x 3
##    splits        id      id2  
##    <list>        <chr>   <chr>
##  1 <split [5/2]> Repeat1 Fold1
##  2 <split [5/2]> Repeat1 Fold2
##  3 <split [6/1]> Repeat1 Fold3
##  4 <split [6/1]> Repeat1 Fold4
##  5 <split [6/1]> Repeat1 Fold5
##  6 <split [5/2]> Repeat2 Fold1
##  7 <split [5/2]> Repeat2 Fold2
##  8 <split [6/1]> Repeat2 Fold3
##  9 <split [6/1]> Repeat2 Fold4
## 10 <split [6/1]> Repeat2 Fold5
## # ... with 15 more rows
…
